^C:\USERS\MATRIX\DOCUMENTS\VISUAL STUDIO 2017\PROJECTS\TDOI\TDOI\SRC\CAMERA.CPP|C:\USERS\MATRIX\DOCUMENTS\VISUAL STUDIO 2017\PROJECTS\TDOI\TDOI\SRC\CREATEENTITYWINDOW.CPP|C:\USERS\MATRIX\DOCUMENTS\VISUAL STUDIO 2017\PROJECTS\TDOI\TDOI\SRC\CREATEMATERIALWINDOW.CPP|C:\USERS\MATRIX\DOCUMENTS\VISUAL STUDIO 2017\PROJECTS\TDOI\TDOI\SRC\CREATESHADERWINDOW.CPP|C:\USERS\MATRIX\DOCUMENTS\VISUAL STUDIO 2017\PROJECTS\TDOI\TDOI\SRC\CREATETEXTUREWINDOW.CPP|C:\USERS\MATRIX\DOCUMENTS\VISUAL STUDIO 2017\PROJECTS\TDOI\TDOI\SRC\DISPLAY.CPP|C:\USERS\MATRIX\DOCUMENTS\VISUAL STUDIO 2017\PROJECTS\TDOI\TDOI\SRC\DISPLAYSETTINGS.CPP|C:\USERS\MATRIX\DOCUMENTS\VISUAL STUDIO 2017\PROJECTS\TDOI\TDOI\SRC\ENTITY.CPP|C:\USERS\MATRIX\DOCUMENTS\VISUAL STUDIO 2017\PROJECTS\TDOI\TDOI\SRC\ENTITYHANDLER.CPP|C:\USERS\MATRIX\DOCUMENTS\VISUAL STUDIO 2017\PROJECTS\TDOI\TDOI\SRC\GUIBASE.CPP|C:\USERS\MATRIX\DOCUMENTS\VISUAL STUDIO 2017\PROJECTS\TDOI\TDOI\SRC\MATERIAL.CPP|C:\USERS\MATRIX\DOCUMENTS\VISUAL STUDIO 2017\PROJECTS\TDOI\TDOI\SRC\MATERIALHANDLER.CPP|C:\USERS\MATRIX\DOCUMENTS\VISUAL STUDIO 2017\PROJECTS\TDOI\TDOI\SRC\MODELLOADER.CPP|C:\USERS\MATRIX\DOCUMENTS\VISUAL STUDIO 2017\PROJECTS\TDOI\TDOI\SRC\NV_DDS.CPP|C:\USERS\MATRIX\DOCUMENTS\VISUAL STUDIO 2017\PROJECTS\TDOI\TDOI\SRC\PROGRAM.CPP|C:\USERS\MATRIX\DOCUMENTS\VISUAL STUDIO 2017\PROJECTS\TDOI\TDOI\SRC\RAWMODEL.CPP|C:\USERS\MATRIX\DOCUMENTS\VISUAL STUDIO 2017\PROJECTS\TDOI\TDOI\SRC\RESOURCEHANDLER.CPP|C:\USERS\MATRIX\DOCUMENTS\VISUAL STUDIO 2017\PROJECTS\TDOI\TDOI\SRC\SHADER.CPP|C:\USERS\MATRIX\DOCUMENTS\VISUAL STUDIO 2017\PROJECTS\TDOI\TDOI\SRC\SHADERHANDLER.CPP|C:\USERS\MATRIX\DOCUMENTS\VISUAL STUDIO 2017\PROJECTS\TDOI\TDOI\SRC\TEXTURE.CPP|C:\USERS\MATRIX\DOCUMENTS\VISUAL STUDIO 2017\PROJECTS\TDOI\TDOI\SRC\TEXTUREHANDLER.CPP|C:\USERS\MATRIX\DOCUMENTS\VISUAL STUDIO 2017\PROJECTS\TDOI\TDOI\SRC\TEXTURELOADER.CPP|C:\USERS\MATRIX\DOCUMENTS\VISUAL STUDIO 2017\PROJECTS\TDOI\TDOI\SRC\VENDOR\IAMGUI\ADDONS\IMGUIFILESYSTEM\IMGUIFILESYSTEM.CPP|C:\USERS\MATRIX\DOCUMENTS\VISUAL STUDIO 2017\PROJECTS\TDOI\TDOI\SRC\VENDOR\IAMGUI\IMGUI.CPP|C:\USERS\MATRIX\DOCUMENTS\VISUAL STUDIO 2017\PROJECTS\TDOI\TDOI\SRC\VENDOR\IAMGUI\IMGUI_DEMO.CPP|C:\USERS\MATRIX\DOCUMENTS\VISUAL STUDIO 2017\PROJECTS\TDOI\TDOI\SRC\VENDOR\IAMGUI\IMGUI_DRAW.CPP|C:\USERS\MATRIX\DOCUMENTS\VISUAL STUDIO 2017\PROJECTS\TDOI\TDOI\SRC\VENDOR\IAMGUI\IMGUI_IMPL_GLFW_GL3.CPP|C:\USERS\MATRIX\DOCUMENTS\VISUAL STUDIO 2017\PROJECTS\TDOI\TDOI\SRC\VERTEXARRAY.CPP|C:\USERS\MATRIX\DOCUMENTS\VISUAL STUDIO 2017\PROJECTS\TDOI\TDOI\SRC\VERTEXBUFFER.CPP|C:\USERS\MATRIX\DOCUMENTS\VISUAL STUDIO 2017\PROJECTS\TDOI\TDOI\SRC\WINDOWHANDLER.CPP|C:\USERS\MATRIX\DOCUMENTS\VISUAL STUDIO 2017\PROJECTS\TDOI\TDOI\TDOI.CPP
C:\USERS\MATRIX\DOCUMENTS\VISUAL STUDIO 2017\PROJECTS\TDOI\TDOI\DEBUG\VC141.PDB
C:\USERS\MATRIX\DOCUMENTS\VISUAL STUDIO 2017\PROJECTS\TDOI\TDOI\DEBUG\VC141.IDB
C:\USERS\MATRIX\DOCUMENTS\VISUAL STUDIO 2017\PROJECTS\TDOI\TDOI\DEBUG\TEXTURE.OBJ
C:\USERS\MATRIX\DOCUMENTS\VISUAL STUDIO 2017\PROJECTS\TDOI\TDOI\DEBUG\SHADERHANDLER.OBJ
C:\USERS\MATRIX\DOCUMENTS\VISUAL STUDIO 2017\PROJECTS\TDOI\TDOI\DEBUG\SHADER.OBJ
C:\USERS\MATRIX\DOCUMENTS\VISUAL STUDIO 2017\PROJECTS\TDOI\TDOI\DEBUG\RESOURCEHANDLER.OBJ
C:\USERS\MATRIX\DOCUMENTS\VISUAL STUDIO 2017\PROJECTS\TDOI\TDOI\DEBUG\RAWMODEL.OBJ
C:\USERS\MATRIX\DOCUMENTS\VISUAL STUDIO 2017\PROJECTS\TDOI\TDOI\DEBUG\PROGRAM.OBJ
C:\USERS\MATRIX\DOCUMENTS\VISUAL STUDIO 2017\PROJECTS\TDOI\TDOI\DEBUG\NV_DDS.OBJ
C:\USERS\MATRIX\DOCUMENTS\VISUAL STUDIO 2017\PROJECTS\TDOI\TDOI\DEBUG\MODELLOADER.OBJ
C:\USERS\MATRIX\DOCUMENTS\VISUAL STUDIO 2017\PROJECTS\TDOI\TDOI\DEBUG\MATERIALHANDLER.OBJ
C:\USERS\MATRIX\DOCUMENTS\VISUAL STUDIO 2017\PROJECTS\TDOI\TDOI\DEBUG\MATERIAL.OBJ
C:\USERS\MATRIX\DOCUMENTS\VISUAL STUDIO 2017\PROJECTS\TDOI\TDOI\DEBUG\GUIBASE.OBJ
C:\USERS\MATRIX\DOCUMENTS\VISUAL STUDIO 2017\PROJECTS\TDOI\TDOI\DEBUG\ENTITYHANDLER.OBJ
C:\USERS\MATRIX\DOCUMENTS\VISUAL STUDIO 2017\PROJECTS\TDOI\TDOI\DEBUG\ENTITY.OBJ
C:\USERS\MATRIX\DOCUMENTS\VISUAL STUDIO 2017\PROJECTS\TDOI\TDOI\DEBUG\DISPLAYSETTINGS.OBJ
C:\USERS\MATRIX\DOCUMENTS\VISUAL STUDIO 2017\PROJECTS\TDOI\TDOI\DEBUG\DISPLAY.OBJ
C:\USERS\MATRIX\DOCUMENTS\VISUAL STUDIO 2017\PROJECTS\TDOI\TDOI\DEBUG\CREATETEXTUREWINDOW.OBJ
C:\USERS\MATRIX\DOCUMENTS\VISUAL STUDIO 2017\PROJECTS\TDOI\TDOI\DEBUG\CREATESHADERWINDOW.OBJ
C:\USERS\MATRIX\DOCUMENTS\VISUAL STUDIO 2017\PROJECTS\TDOI\TDOI\DEBUG\CREATEMATERIALWINDOW.OBJ
C:\USERS\MATRIX\DOCUMENTS\VISUAL STUDIO 2017\PROJECTS\TDOI\TDOI\DEBUG\CREATEENTITYWINDOW.OBJ
C:\USERS\MATRIX\DOCUMENTS\VISUAL STUDIO 2017\PROJECTS\TDOI\TDOI\DEBUG\CAMERA.OBJ
C:\USERS\MATRIX\DOCUMENTS\VISUAL STUDIO 2017\PROJECTS\TDOI\TDOI\DEBUG\TDOI.OBJ
C:\USERS\MATRIX\DOCUMENTS\VISUAL STUDIO 2017\PROJECTS\TDOI\TDOI\DEBUG\WINDOWHANDLER.OBJ
C:\USERS\MATRIX\DOCUMENTS\VISUAL STUDIO 2017\PROJECTS\TDOI\TDOI\DEBUG\VERTEXBUFFER.OBJ
C:\USERS\MATRIX\DOCUMENTS\VISUAL STUDIO 2017\PROJECTS\TDOI\TDOI\DEBUG\VERTEXARRAY.OBJ
C:\USERS\MATRIX\DOCUMENTS\VISUAL STUDIO 2017\PROJECTS\TDOI\TDOI\DEBUG\IMGUI_IMPL_GLFW_GL3.OBJ
C:\USERS\MATRIX\DOCUMENTS\VISUAL STUDIO 2017\PROJECTS\TDOI\TDOI\DEBUG\IMGUI_DRAW.OBJ
C:\USERS\MATRIX\DOCUMENTS\VISUAL STUDIO 2017\PROJECTS\TDOI\TDOI\DEBUG\IMGUI_DEMO.OBJ
C:\USERS\MATRIX\DOCUMENTS\VISUAL STUDIO 2017\PROJECTS\TDOI\TDOI\DEBUG\IMGUI.OBJ
C:\USERS\MATRIX\DOCUMENTS\VISUAL STUDIO 2017\PROJECTS\TDOI\TDOI\DEBUG\IMGUIFILESYSTEM.OBJ
C:\USERS\MATRIX\DOCUMENTS\VISUAL STUDIO 2017\PROJECTS\TDOI\TDOI\DEBUG\TEXTURELOADER.OBJ
C:\USERS\MATRIX\DOCUMENTS\VISUAL STUDIO 2017\PROJECTS\TDOI\TDOI\DEBUG\TEXTUREHANDLER.OBJ
^C:\USERS\MATRIX\DOCUMENTS\VISUAL STUDIO 2017\PROJECTS\TDOI\TDOI\SRC\CAMERA.CPP|C:\USERS\MATRIX\DOCUMENTS\VISUAL STUDIO 2017\PROJECTS\TDOI\TDOI\SRC\CREATEENTITYWINDOW.CPP|C:\USERS\MATRIX\DOCUMENTS\VISUAL STUDIO 2017\PROJECTS\TDOI\TDOI\SRC\CREATEMATERIALWINDOW.CPP|C:\USERS\MATRIX\DOCUMENTS\VISUAL STUDIO 2017\PROJECTS\TDOI\TDOI\SRC\CREATESHADERWINDOW.CPP|C:\USERS\MATRIX\DOCUMENTS\VISUAL STUDIO 2017\PROJECTS\TDOI\TDOI\SRC\CREATETEXTUREWINDOW.CPP|C:\USERS\MATRIX\DOCUMENTS\VISUAL STUDIO 2017\PROJECTS\TDOI\TDOI\SRC\DISPLAY.CPP|C:\USERS\MATRIX\DOCUMENTS\VISUAL STUDIO 2017\PROJECTS\TDOI\TDOI\SRC\DISPLAYSETTINGS.CPP|C:\USERS\MATRIX\DOCUMENTS\VISUAL STUDIO 2017\PROJECTS\TDOI\TDOI\SRC\ENTITY.CPP|C:\USERS\MATRIX\DOCUMENTS\VISUAL STUDIO 2017\PROJECTS\TDOI\TDOI\SRC\ENTITYHANDLER.CPP|C:\USERS\MATRIX\DOCUMENTS\VISUAL STUDIO 2017\PROJECTS\TDOI\TDOI\SRC\GUIBASE.CPP|C:\USERS\MATRIX\DOCUMENTS\VISUAL STUDIO 2017\PROJECTS\TDOI\TDOI\SRC\MODELLOADER.CPP|C:\USERS\MATRIX\DOCUMENTS\VISUAL STUDIO 2017\PROJECTS\TDOI\TDOI\SRC\RAWMODEL.CPP|C:\USERS\MATRIX\DOCUMENTS\VISUAL STUDIO 2017\PROJECTS\TDOI\TDOI\SRC\RESOURCEHANDLER.CPP|C:\USERS\MATRIX\DOCUMENTS\VISUAL STUDIO 2017\PROJECTS\TDOI\TDOI\SRC\VERTEXARRAY.CPP|C:\USERS\MATRIX\DOCUMENTS\VISUAL STUDIO 2017\PROJECTS\TDOI\TDOI\SRC\WINDOWHANDLER.CPP|C:\USERS\MATRIX\DOCUMENTS\VISUAL STUDIO 2017\PROJECTS\TDOI\TDOI\TDOI.CPP
C:\USERS\MATRIX\DOCUMENTS\VISUAL STUDIO 2017\PROJECTS\TDOI\TDOI\DEBUG\VC141.PDB
C:\USERS\MATRIX\DOCUMENTS\VISUAL STUDIO 2017\PROJECTS\TDOI\TDOI\DEBUG\VC141.IDB
C:\USERS\MATRIX\DOCUMENTS\VISUAL STUDIO 2017\PROJECTS\TDOI\TDOI\DEBUG\TDOI.OBJ
C:\USERS\MATRIX\DOCUMENTS\VISUAL STUDIO 2017\PROJECTS\TDOI\TDOI\DEBUG\WINDOWHANDLER.OBJ
C:\USERS\MATRIX\DOCUMENTS\VISUAL STUDIO 2017\PROJECTS\TDOI\TDOI\DEBUG\VERTEXARRAY.OBJ
C:\USERS\MATRIX\DOCUMENTS\VISUAL STUDIO 2017\PROJECTS\TDOI\TDOI\DEBUG\RESOURCEHANDLER.OBJ
C:\USERS\MATRIX\DOCUMENTS\VISUAL STUDIO 2017\PROJECTS\TDOI\TDOI\DEBUG\RAWMODEL.OBJ
C:\USERS\MATRIX\DOCUMENTS\VISUAL STUDIO 2017\PROJECTS\TDOI\TDOI\DEBUG\MODELLOADER.OBJ
C:\USERS\MATRIX\DOCUMENTS\VISUAL STUDIO 2017\PROJECTS\TDOI\TDOI\DEBUG\GUIBASE.OBJ
C:\USERS\MATRIX\DOCUMENTS\VISUAL STUDIO 2017\PROJECTS\TDOI\TDOI\DEBUG\ENTITYHANDLER.OBJ
C:\USERS\MATRIX\DOCUMENTS\VISUAL STUDIO 2017\PROJECTS\TDOI\TDOI\DEBUG\ENTITY.OBJ
C:\USERS\MATRIX\DOCUMENTS\VISUAL STUDIO 2017\PROJECTS\TDOI\TDOI\DEBUG\DISPLAYSETTINGS.OBJ
C:\USERS\MATRIX\DOCUMENTS\VISUAL STUDIO 2017\PROJECTS\TDOI\TDOI\DEBUG\DISPLAY.OBJ
C:\USERS\MATRIX\DOCUMENTS\VISUAL STUDIO 2017\PROJECTS\TDOI\TDOI\DEBUG\CREATETEXTUREWINDOW.OBJ
C:\USERS\MATRIX\DOCUMENTS\VISUAL STUDIO 2017\PROJECTS\TDOI\TDOI\DEBUG\CREATESHADERWINDOW.OBJ
C:\USERS\MATRIX\DOCUMENTS\VISUAL STUDIO 2017\PROJECTS\TDOI\TDOI\DEBUG\CREATEMATERIALWINDOW.OBJ
C:\USERS\MATRIX\DOCUMENTS\VISUAL STUDIO 2017\PROJECTS\TDOI\TDOI\DEBUG\CREATEENTITYWINDOW.OBJ
C:\USERS\MATRIX\DOCUMENTS\VISUAL STUDIO 2017\PROJECTS\TDOI\TDOI\DEBUG\CAMERA.OBJ
^C:\USERS\MATRIX\DOCUMENTS\VISUAL STUDIO 2017\PROJECTS\TDOI\TDOI\SRC\CAMERA.CPP|C:\USERS\MATRIX\DOCUMENTS\VISUAL STUDIO 2017\PROJECTS\TDOI\TDOI\SRC\ENTITYHANDLER.CPP|C:\USERS\MATRIX\DOCUMENTS\VISUAL STUDIO 2017\PROJECTS\TDOI\TDOI\SRC\GUIBASE.CPP
C:\USERS\MATRIX\DOCUMENTS\VISUAL STUDIO 2017\PROJECTS\TDOI\TDOI\DEBUG\VC141.PDB
C:\USERS\MATRIX\DOCUMENTS\VISUAL STUDIO 2017\PROJECTS\TDOI\TDOI\DEBUG\VC141.IDB
C:\USERS\MATRIX\DOCUMENTS\VISUAL STUDIO 2017\PROJECTS\TDOI\TDOI\DEBUG\GUIBASE.OBJ
C:\USERS\MATRIX\DOCUMENTS\VISUAL STUDIO 2017\PROJECTS\TDOI\TDOI\DEBUG\CAMERA.OBJ
^C:\USERS\MATRIX\DOCUMENTS\VISUAL STUDIO 2017\PROJECTS\TDOI\TDOI\SRC\CREATEENTITYWINDOW.CPP|C:\USERS\MATRIX\DOCUMENTS\VISUAL STUDIO 2017\PROJECTS\TDOI\TDOI\SRC\CREATEMATERIALWINDOW.CPP|C:\USERS\MATRIX\DOCUMENTS\VISUAL STUDIO 2017\PROJECTS\TDOI\TDOI\SRC\CREATESHADERWINDOW.CPP|C:\USERS\MATRIX\DOCUMENTS\VISUAL STUDIO 2017\PROJECTS\TDOI\TDOI\SRC\CREATETEXTUREWINDOW.CPP|C:\USERS\MATRIX\DOCUMENTS\VISUAL STUDIO 2017\PROJECTS\TDOI\TDOI\SRC\DISPLAY.CPP|C:\USERS\MATRIX\DOCUMENTS\VISUAL STUDIO 2017\PROJECTS\TDOI\TDOI\SRC\ENTITY.CPP|C:\USERS\MATRIX\DOCUMENTS\VISUAL STUDIO 2017\PROJECTS\TDOI\TDOI\SRC\ENTITYHANDLER.CPP|C:\USERS\MATRIX\DOCUMENTS\VISUAL STUDIO 2017\PROJECTS\TDOI\TDOI\SRC\GUIBASE.CPP|C:\USERS\MATRIX\DOCUMENTS\VISUAL STUDIO 2017\PROJECTS\TDOI\TDOI\SRC\OBJECT.CPP|C:\USERS\MATRIX\DOCUMENTS\VISUAL STUDIO 2017\PROJECTS\TDOI\TDOI\SRC\RESOURCEHANDLER.CPP|C:\USERS\MATRIX\DOCUMENTS\VISUAL STUDIO 2017\PROJECTS\TDOI\TDOI\SRC\WINDOWHANDLER.CPP|C:\USERS\MATRIX\DOCUMENTS\VISUAL STUDIO 2017\PROJECTS\TDOI\TDOI\TDOI.CPP
C:\USERS\MATRIX\DOCUMENTS\VISUAL STUDIO 2017\PROJECTS\TDOI\TDOI\DEBUG\VC141.PDB
C:\USERS\MATRIX\DOCUMENTS\VISUAL STUDIO 2017\PROJECTS\TDOI\TDOI\DEBUG\VC141.IDB
C:\USERS\MATRIX\DOCUMENTS\VISUAL STUDIO 2017\PROJECTS\TDOI\TDOI\DEBUG\TDOI.OBJ
C:\USERS\MATRIX\DOCUMENTS\VISUAL STUDIO 2017\PROJECTS\TDOI\TDOI\DEBUG\WINDOWHANDLER.OBJ
C:\USERS\MATRIX\DOCUMENTS\VISUAL STUDIO 2017\PROJECTS\TDOI\TDOI\DEBUG\RESOURCEHANDLER.OBJ
C:\USERS\MATRIX\DOCUMENTS\VISUAL STUDIO 2017\PROJECTS\TDOI\TDOI\DEBUG\OBJECT.OBJ
C:\USERS\MATRIX\DOCUMENTS\VISUAL STUDIO 2017\PROJECTS\TDOI\TDOI\DEBUG\GUIBASE.OBJ
C:\USERS\MATRIX\DOCUMENTS\VISUAL STUDIO 2017\PROJECTS\TDOI\TDOI\DEBUG\ENTITYHANDLER.OBJ
C:\USERS\MATRIX\DOCUMENTS\VISUAL STUDIO 2017\PROJECTS\TDOI\TDOI\DEBUG\ENTITY.OBJ
C:\USERS\MATRIX\DOCUMENTS\VISUAL STUDIO 2017\PROJECTS\TDOI\TDOI\DEBUG\DISPLAY.OBJ
C:\USERS\MATRIX\DOCUMENTS\VISUAL STUDIO 2017\PROJECTS\TDOI\TDOI\DEBUG\CREATETEXTUREWINDOW.OBJ
C:\USERS\MATRIX\DOCUMENTS\VISUAL STUDIO 2017\PROJECTS\TDOI\TDOI\DEBUG\CREATESHADERWINDOW.OBJ
C:\USERS\MATRIX\DOCUMENTS\VISUAL STUDIO 2017\PROJECTS\TDOI\TDOI\DEBUG\CREATEMATERIALWINDOW.OBJ
C:\USERS\MATRIX\DOCUMENTS\VISUAL STUDIO 2017\PROJECTS\TDOI\TDOI\DEBUG\CREATEENTITYWINDOW.OBJ
^C:\USERS\MATRIX\DOCUMENTS\VISUAL STUDIO 2017\PROJECTS\TDOI\TDOI\SRC\CAMERA.CPP|C:\USERS\MATRIX\DOCUMENTS\VISUAL STUDIO 2017\PROJECTS\TDOI\TDOI\SRC\CREATEENTITYWINDOW.CPP|C:\USERS\MATRIX\DOCUMENTS\VISUAL STUDIO 2017\PROJECTS\TDOI\TDOI\SRC\CREATEMATERIALWINDOW.CPP|C:\USERS\MATRIX\DOCUMENTS\VISUAL STUDIO 2017\PROJECTS\TDOI\TDOI\SRC\CREATESHADERWINDOW.CPP|C:\USERS\MATRIX\DOCUMENTS\VISUAL STUDIO 2017\PROJECTS\TDOI\TDOI\SRC\CREATETEXTUREWINDOW.CPP|C:\USERS\MATRIX\DOCUMENTS\VISUAL STUDIO 2017\PROJECTS\TDOI\TDOI\SRC\DISPLAY.CPP|C:\USERS\MATRIX\DOCUMENTS\VISUAL STUDIO 2017\PROJECTS\TDOI\TDOI\SRC\DISPLAYSETTINGS.CPP|C:\USERS\MATRIX\DOCUMENTS\VISUAL STUDIO 2017\PROJECTS\TDOI\TDOI\SRC\ENTITY.CPP|C:\USERS\MATRIX\DOCUMENTS\VISUAL STUDIO 2017\PROJECTS\TDOI\TDOI\SRC\ENTITYHANDLER.CPP|C:\USERS\MATRIX\DOCUMENTS\VISUAL STUDIO 2017\PROJECTS\TDOI\TDOI\SRC\GUIBASE.CPP|C:\USERS\MATRIX\DOCUMENTS\VISUAL STUDIO 2017\PROJECTS\TDOI\TDOI\SRC\MATERIAL.CPP|C:\USERS\MATRIX\DOCUMENTS\VISUAL STUDIO 2017\PROJECTS\TDOI\TDOI\SRC\MATERIALHANDLER.CPP|C:\USERS\MATRIX\DOCUMENTS\VISUAL STUDIO 2017\PROJECTS\TDOI\TDOI\SRC\MODELLOADER.CPP|C:\USERS\MATRIX\DOCUMENTS\VISUAL STUDIO 2017\PROJECTS\TDOI\TDOI\SRC\NV_DDS.CPP|C:\USERS\MATRIX\DOCUMENTS\VISUAL STUDIO 2017\PROJECTS\TDOI\TDOI\SRC\OBJECT.CPP|C:\USERS\MATRIX\DOCUMENTS\VISUAL STUDIO 2017\PROJECTS\TDOI\TDOI\SRC\PROGRAM.CPP|C:\USERS\MATRIX\DOCUMENTS\VISUAL STUDIO 2017\PROJECTS\TDOI\TDOI\SRC\RAWMODEL.CPP|C:\USERS\MATRIX\DOCUMENTS\VISUAL STUDIO 2017\PROJECTS\TDOI\TDOI\SRC\RESOURCEHANDLER.CPP|C:\USERS\MATRIX\DOCUMENTS\VISUAL STUDIO 2017\PROJECTS\TDOI\TDOI\SRC\SHADER.CPP|C:\USERS\MATRIX\DOCUMENTS\VISUAL STUDIO 2017\PROJECTS\TDOI\TDOI\SRC\SHADERHANDLER.CPP|C:\USERS\MATRIX\DOCUMENTS\VISUAL STUDIO 2017\PROJECTS\TDOI\TDOI\SRC\TEXTURE.CPP|C:\USERS\MATRIX\DOCUMENTS\VISUAL STUDIO 2017\PROJECTS\TDOI\TDOI\SRC\TEXTUREHANDLER.CPP|C:\USERS\MATRIX\DOCUMENTS\VISUAL STUDIO 2017\PROJECTS\TDOI\TDOI\SRC\TEXTURELOADER.CPP|C:\USERS\MATRIX\DOCUMENTS\VISUAL STUDIO 2017\PROJECTS\TDOI\TDOI\SRC\VENDOR\IAMGUI\ADDONS\IMGUIFILESYSTEM\IMGUIFILESYSTEM.CPP|C:\USERS\MATRIX\DOCUMENTS\VISUAL STUDIO 2017\PROJECTS\TDOI\TDOI\SRC\VENDOR\IAMGUI\IMGUI.CPP|C:\USERS\MATRIX\DOCUMENTS\VISUAL STUDIO 2017\PROJECTS\TDOI\TDOI\SRC\VENDOR\IAMGUI\IMGUI_DEMO.CPP|C:\USERS\MATRIX\DOCUMENTS\VISUAL STUDIO 2017\PROJECTS\TDOI\TDOI\SRC\VENDOR\IAMGUI\IMGUI_DRAW.CPP|C:\USERS\MATRIX\DOCUMENTS\VISUAL STUDIO 2017\PROJECTS\TDOI\TDOI\SRC\VENDOR\IAMGUI\IMGUI_IMPL_GLFW_GL3.CPP|C:\USERS\MATRIX\DOCUMENTS\VISUAL STUDIO 2017\PROJECTS\TDOI\TDOI\SRC\VERTEXARRAY.CPP|C:\USERS\MATRIX\DOCUMENTS\VISUAL STUDIO 2017\PROJECTS\TDOI\TDOI\SRC\VERTEXBUFFER.CPP|C:\USERS\MATRIX\DOCUMENTS\VISUAL STUDIO 2017\PROJECTS\TDOI\TDOI\SRC\WINDOWHANDLER.CPP|C:\USERS\MATRIX\DOCUMENTS\VISUAL STUDIO 2017\PROJECTS\TDOI\TDOI\TDOI.CPP
C:\USERS\MATRIX\DOCUMENTS\VISUAL STUDIO 2017\PROJECTS\TDOI\TDOI\DEBUG\VC141.PDB
C:\USERS\MATRIX\DOCUMENTS\VISUAL STUDIO 2017\PROJECTS\TDOI\TDOI\DEBUG\VC141.IDB
C:\USERS\MATRIX\DOCUMENTS\VISUAL STUDIO 2017\PROJECTS\TDOI\TDOI\DEBUG\SHADERHANDLER.NATIVECODEANALYSIS.XML
C:\USERS\MATRIX\DOCUMENTS\VISUAL STUDIO 2017\PROJECTS\TDOI\TDOI\DEBUG\SHADER.NATIVECODEANALYSIS.XML
C:\USERS\MATRIX\DOCUMENTS\VISUAL STUDIO 2017\PROJECTS\TDOI\TDOI\DEBUG\RESOURCEHANDLER.NATIVECODEANALYSIS.XML
C:\USERS\MATRIX\DOCUMENTS\VISUAL STUDIO 2017\PROJECTS\TDOI\TDOI\DEBUG\RAWMODEL.NATIVECODEANALYSIS.XML
C:\USERS\MATRIX\DOCUMENTS\VISUAL STUDIO 2017\PROJECTS\TDOI\TDOI\DEBUG\PROGRAM.NATIVECODEANALYSIS.XML
C:\USERS\MATRIX\DOCUMENTS\VISUAL STUDIO 2017\PROJECTS\TDOI\TDOI\DEBUG\OBJECT.NATIVECODEANALYSIS.XML
C:\USERS\MATRIX\DOCUMENTS\VISUAL STUDIO 2017\PROJECTS\TDOI\TDOI\DEBUG\NV_DDS.NATIVECODEANALYSIS.XML
C:\USERS\MATRIX\DOCUMENTS\VISUAL STUDIO 2017\PROJECTS\TDOI\TDOI\DEBUG\MODELLOADER.NATIVECODEANALYSIS.XML
C:\USERS\MATRIX\DOCUMENTS\VISUAL STUDIO 2017\PROJECTS\TDOI\TDOI\DEBUG\MATERIALHANDLER.NATIVECODEANALYSIS.XML
C:\USERS\MATRIX\DOCUMENTS\VISUAL STUDIO 2017\PROJECTS\TDOI\TDOI\DEBUG\MATERIAL.NATIVECODEANALYSIS.XML
C:\USERS\MATRIX\DOCUMENTS\VISUAL STUDIO 2017\PROJECTS\TDOI\TDOI\DEBUG\GUIBASE.NATIVECODEANALYSIS.XML
C:\USERS\MATRIX\DOCUMENTS\VISUAL STUDIO 2017\PROJECTS\TDOI\TDOI\DEBUG\ENTITYHANDLER.NATIVECODEANALYSIS.XML
C:\USERS\MATRIX\DOCUMENTS\VISUAL STUDIO 2017\PROJECTS\TDOI\TDOI\DEBUG\ENTITY.NATIVECODEANALYSIS.XML
C:\USERS\MATRIX\DOCUMENTS\VISUAL STUDIO 2017\PROJECTS\TDOI\TDOI\DEBUG\DISPLAYSETTINGS.NATIVECODEANALYSIS.XML
C:\USERS\MATRIX\DOCUMENTS\VISUAL STUDIO 2017\PROJECTS\TDOI\TDOI\DEBUG\DISPLAY.NATIVECODEANALYSIS.XML
C:\USERS\MATRIX\DOCUMENTS\VISUAL STUDIO 2017\PROJECTS\TDOI\TDOI\DEBUG\CREATETEXTUREWINDOW.NATIVECODEANALYSIS.XML
C:\USERS\MATRIX\DOCUMENTS\VISUAL STUDIO 2017\PROJECTS\TDOI\TDOI\DEBUG\CREATESHADERWINDOW.NATIVECODEANALYSIS.XML
C:\USERS\MATRIX\DOCUMENTS\VISUAL STUDIO 2017\PROJECTS\TDOI\TDOI\DEBUG\CREATEMATERIALWINDOW.NATIVECODEANALYSIS.XML
C:\USERS\MATRIX\DOCUMENTS\VISUAL STUDIO 2017\PROJECTS\TDOI\TDOI\DEBUG\CREATEENTITYWINDOW.NATIVECODEANALYSIS.XML
C:\USERS\MATRIX\DOCUMENTS\VISUAL STUDIO 2017\PROJECTS\TDOI\TDOI\DEBUG\CAMERA.NATIVECODEANALYSIS.XML
C:\USERS\MATRIX\DOCUMENTS\VISUAL STUDIO 2017\PROJECTS\TDOI\TDOI\DEBUG\CAMERA.OBJ
C:\USERS\MATRIX\DOCUMENTS\VISUAL STUDIO 2017\PROJECTS\TDOI\TDOI\DEBUG\CREATEENTITYWINDOW.OBJ
C:\USERS\MATRIX\DOCUMENTS\VISUAL STUDIO 2017\PROJECTS\TDOI\TDOI\DEBUG\CREATEMATERIALWINDOW.OBJ
C:\USERS\MATRIX\DOCUMENTS\VISUAL STUDIO 2017\PROJECTS\TDOI\TDOI\DEBUG\CREATESHADERWINDOW.OBJ
C:\USERS\MATRIX\DOCUMENTS\VISUAL STUDIO 2017\PROJECTS\TDOI\TDOI\DEBUG\CREATETEXTUREWINDOW.OBJ
C:\USERS\MATRIX\DOCUMENTS\VISUAL STUDIO 2017\PROJECTS\TDOI\TDOI\DEBUG\DISPLAY.OBJ
C:\USERS\MATRIX\DOCUMENTS\VISUAL STUDIO 2017\PROJECTS\TDOI\TDOI\DEBUG\DISPLAYSETTINGS.OBJ
C:\USERS\MATRIX\DOCUMENTS\VISUAL STUDIO 2017\PROJECTS\TDOI\TDOI\DEBUG\ENTITY.OBJ
C:\USERS\MATRIX\DOCUMENTS\VISUAL STUDIO 2017\PROJECTS\TDOI\TDOI\DEBUG\ENTITYHANDLER.OBJ
C:\USERS\MATRIX\DOCUMENTS\VISUAL STUDIO 2017\PROJECTS\TDOI\TDOI\DEBUG\GUIBASE.OBJ
C:\USERS\MATRIX\DOCUMENTS\VISUAL STUDIO 2017\PROJECTS\TDOI\TDOI\DEBUG\MATERIAL.OBJ
C:\USERS\MATRIX\DOCUMENTS\VISUAL STUDIO 2017\PROJECTS\TDOI\TDOI\DEBUG\MATERIALHANDLER.OBJ
C:\USERS\MATRIX\DOCUMENTS\VISUAL STUDIO 2017\PROJECTS\TDOI\TDOI\DEBUG\MODELLOADER.OBJ
C:\USERS\MATRIX\DOCUMENTS\VISUAL STUDIO 2017\PROJECTS\TDOI\TDOI\DEBUG\NV_DDS.OBJ
C:\USERS\MATRIX\DOCUMENTS\VISUAL STUDIO 2017\PROJECTS\TDOI\TDOI\DEBUG\OBJECT.OBJ
C:\USERS\MATRIX\DOCUMENTS\VISUAL STUDIO 2017\PROJECTS\TDOI\TDOI\DEBUG\PROGRAM.OBJ
C:\USERS\MATRIX\DOCUMENTS\VISUAL STUDIO 2017\PROJECTS\TDOI\TDOI\DEBUG\RAWMODEL.OBJ
C:\USERS\MATRIX\DOCUMENTS\VISUAL STUDIO 2017\PROJECTS\TDOI\TDOI\DEBUG\RESOURCEHANDLER.OBJ
C:\USERS\MATRIX\DOCUMENTS\VISUAL STUDIO 2017\PROJECTS\TDOI\TDOI\DEBUG\SHADER.OBJ
C:\USERS\MATRIX\DOCUMENTS\VISUAL STUDIO 2017\PROJECTS\TDOI\TDOI\DEBUG\SHADERHANDLER.OBJ
C:\USERS\MATRIX\DOCUMENTS\VISUAL STUDIO 2017\PROJECTS\TDOI\TDOI\DEBUG\TDOI.NATIVECODEANALYSIS.XML
C:\USERS\MATRIX\DOCUMENTS\VISUAL STUDIO 2017\PROJECTS\TDOI\TDOI\DEBUG\WINDOWHANDLER.NATIVECODEANALYSIS.XML
C:\USERS\MATRIX\DOCUMENTS\VISUAL STUDIO 2017\PROJECTS\TDOI\TDOI\DEBUG\VERTEXBUFFER.NATIVECODEANALYSIS.XML
C:\USERS\MATRIX\DOCUMENTS\VISUAL STUDIO 2017\PROJECTS\TDOI\TDOI\DEBUG\VERTEXARRAY.NATIVECODEANALYSIS.XML
C:\USERS\MATRIX\DOCUMENTS\VISUAL STUDIO 2017\PROJECTS\TDOI\TDOI\DEBUG\IMGUI_IMPL_GLFW_GL3.NATIVECODEANALYSIS.XML
C:\USERS\MATRIX\DOCUMENTS\VISUAL STUDIO 2017\PROJECTS\TDOI\TDOI\DEBUG\IMGUI_DRAW.NATIVECODEANALYSIS.XML
C:\USERS\MATRIX\DOCUMENTS\VISUAL STUDIO 2017\PROJECTS\TDOI\TDOI\DEBUG\IMGUI_DEMO.NATIVECODEANALYSIS.XML
C:\USERS\MATRIX\DOCUMENTS\VISUAL STUDIO 2017\PROJECTS\TDOI\TDOI\DEBUG\IMGUI.NATIVECODEANALYSIS.XML
C:\USERS\MATRIX\DOCUMENTS\VISUAL STUDIO 2017\PROJECTS\TDOI\TDOI\DEBUG\IMGUIFILESYSTEM.NATIVECODEANALYSIS.XML
C:\USERS\MATRIX\DOCUMENTS\VISUAL STUDIO 2017\PROJECTS\TDOI\TDOI\DEBUG\TEXTURELOADER.NATIVECODEANALYSIS.XML
C:\USERS\MATRIX\DOCUMENTS\VISUAL STUDIO 2017\PROJECTS\TDOI\TDOI\DEBUG\TEXTUREHANDLER.NATIVECODEANALYSIS.XML
C:\USERS\MATRIX\DOCUMENTS\VISUAL STUDIO 2017\PROJECTS\TDOI\TDOI\DEBUG\TEXTURE.NATIVECODEANALYSIS.XML
C:\USERS\MATRIX\DOCUMENTS\VISUAL STUDIO 2017\PROJECTS\TDOI\TDOI\DEBUG\TEXTURE.OBJ
C:\USERS\MATRIX\DOCUMENTS\VISUAL STUDIO 2017\PROJECTS\TDOI\TDOI\DEBUG\TEXTUREHANDLER.OBJ
C:\USERS\MATRIX\DOCUMENTS\VISUAL STUDIO 2017\PROJECTS\TDOI\TDOI\DEBUG\TEXTURELOADER.OBJ
C:\USERS\MATRIX\DOCUMENTS\VISUAL STUDIO 2017\PROJECTS\TDOI\TDOI\DEBUG\IMGUIFILESYSTEM.OBJ
C:\USERS\MATRIX\DOCUMENTS\VISUAL STUDIO 2017\PROJECTS\TDOI\TDOI\DEBUG\IMGUI.OBJ
C:\USERS\MATRIX\DOCUMENTS\VISUAL STUDIO 2017\PROJECTS\TDOI\TDOI\DEBUG\IMGUI_DEMO.OBJ
C:\USERS\MATRIX\DOCUMENTS\VISUAL STUDIO 2017\PROJECTS\TDOI\TDOI\DEBUG\IMGUI_DRAW.OBJ
C:\USERS\MATRIX\DOCUMENTS\VISUAL STUDIO 2017\PROJECTS\TDOI\TDOI\DEBUG\IMGUI_IMPL_GLFW_GL3.OBJ
C:\USERS\MATRIX\DOCUMENTS\VISUAL STUDIO 2017\PROJECTS\TDOI\TDOI\DEBUG\VERTEXARRAY.OBJ
C:\USERS\MATRIX\DOCUMENTS\VISUAL STUDIO 2017\PROJECTS\TDOI\TDOI\DEBUG\VERTEXBUFFER.OBJ
C:\USERS\MATRIX\DOCUMENTS\VISUAL STUDIO 2017\PROJECTS\TDOI\TDOI\DEBUG\WINDOWHANDLER.OBJ
C:\USERS\MATRIX\DOCUMENTS\VISUAL STUDIO 2017\PROJECTS\TDOI\TDOI\DEBUG\TDOI.OBJ
^C:\USERS\MATRIX\APPDATA\LOCAL\TEMP\.NETFRAMEWORK,VERSION=V4.0.ASSEMBLYATTRIBUTES.CPP
C:\USERS\MATRIX\DOCUMENTS\VISUAL STUDIO 2017\PROJECTS\TDOI\TDOI\DEBUG\VC141.PDB
C:\USERS\MATRIX\DOCUMENTS\VISUAL STUDIO 2017\PROJECTS\TDOI\TDOI\DEBUG\.NETFRAMEWORK,VERSION=V4.0.ASSEMBLYATTRIBUTES.NATIVECODEANALYSIS.XML
C:\USERS\MATRIX\DOCUMENTS\VISUAL STUDIO 2017\PROJECTS\TDOI\TDOI\DEBUG\.NETFRAMEWORK,VERSION=V4.0.ASSEMBLYATTRIBUTES.OBJ
C:\USERS\MATRIX\DOCUMENTS\VISUAL STUDIO 2017\PROJECTS\TDOI\TDOI\DEBUG\.NETFRAMEWORK,VERSION=V4.0.ASSEMBLYATTRIBUTES.ASM
^C:\USERS\MATRIX\DOCUMENTS\VISUAL STUDIO 2017\PROJECTS\TDOI\TDOI\SRC\CAMERA.CPP|C:\USERS\MATRIX\DOCUMENTS\VISUAL STUDIO 2017\PROJECTS\TDOI\TDOI\SRC\CREATEENTITYWINDOW.CPP|C:\USERS\MATRIX\DOCUMENTS\VISUAL STUDIO 2017\PROJECTS\TDOI\TDOI\SRC\CREATEMATERIALWINDOW.CPP|C:\USERS\MATRIX\DOCUMENTS\VISUAL STUDIO 2017\PROJECTS\TDOI\TDOI\SRC\CREATESHADERWINDOW.CPP|C:\USERS\MATRIX\DOCUMENTS\VISUAL STUDIO 2017\PROJECTS\TDOI\TDOI\SRC\CREATETEXTUREWINDOW.CPP|C:\USERS\MATRIX\DOCUMENTS\VISUAL STUDIO 2017\PROJECTS\TDOI\TDOI\SRC\DISPLAY.CPP|C:\USERS\MATRIX\DOCUMENTS\VISUAL STUDIO 2017\PROJECTS\TDOI\TDOI\SRC\DISPLAYSETTINGS.CPP|C:\USERS\MATRIX\DOCUMENTS\VISUAL STUDIO 2017\PROJECTS\TDOI\TDOI\SRC\ENTITY.CPP|C:\USERS\MATRIX\DOCUMENTS\VISUAL STUDIO 2017\PROJECTS\TDOI\TDOI\SRC\ENTITYHANDLER.CPP|C:\USERS\MATRIX\DOCUMENTS\VISUAL STUDIO 2017\PROJECTS\TDOI\TDOI\SRC\GRID.CPP|C:\USERS\MATRIX\DOCUMENTS\VISUAL STUDIO 2017\PROJECTS\TDOI\TDOI\SRC\GUIBASE.CPP|C:\USERS\MATRIX\DOCUMENTS\VISUAL STUDIO 2017\PROJECTS\TDOI\TDOI\SRC\MATERIAL.CPP|C:\USERS\MATRIX\DOCUMENTS\VISUAL STUDIO 2017\PROJECTS\TDOI\TDOI\SRC\MATERIALHANDLER.CPP|C:\USERS\MATRIX\DOCUMENTS\VISUAL STUDIO 2017\PROJECTS\TDOI\TDOI\SRC\MODELLOADER.CPP|C:\USERS\MATRIX\DOCUMENTS\VISUAL STUDIO 2017\PROJECTS\TDOI\TDOI\SRC\NV_DDS.CPP|C:\USERS\MATRIX\DOCUMENTS\VISUAL STUDIO 2017\PROJECTS\TDOI\TDOI\SRC\OBJECT.CPP|C:\USERS\MATRIX\DOCUMENTS\VISUAL STUDIO 2017\PROJECTS\TDOI\TDOI\SRC\PROGRAM.CPP|C:\USERS\MATRIX\DOCUMENTS\VISUAL STUDIO 2017\PROJECTS\TDOI\TDOI\SRC\RAWMODEL.CPP|C:\USERS\MATRIX\DOCUMENTS\VISUAL STUDIO 2017\PROJECTS\TDOI\TDOI\SRC\RESOURCEHANDLER.CPP|C:\USERS\MATRIX\DOCUMENTS\VISUAL STUDIO 2017\PROJECTS\TDOI\TDOI\SRC\SHADER.CPP|C:\USERS\MATRIX\DOCUMENTS\VISUAL STUDIO 2017\PROJECTS\TDOI\TDOI\SRC\SHADERHANDLER.CPP|C:\USERS\MATRIX\DOCUMENTS\VISUAL STUDIO 2017\PROJECTS\TDOI\TDOI\SRC\TEXTURE.CPP|C:\USERS\MATRIX\DOCUMENTS\VISUAL STUDIO 2017\PROJECTS\TDOI\TDOI\SRC\TEXTUREHANDLER.CPP|C:\USERS\MATRIX\DOCUMENTS\VISUAL STUDIO 2017\PROJECTS\TDOI\TDOI\SRC\TEXTURELOADER.CPP|C:\USERS\MATRIX\DOCUMENTS\VISUAL STUDIO 2017\PROJECTS\TDOI\TDOI\SRC\VENDOR\IAMGUI\ADDONS\IMGUIFILESYSTEM\IMGUIFILESYSTEM.CPP|C:\USERS\MATRIX\DOCUMENTS\VISUAL STUDIO 2017\PROJECTS\TDOI\TDOI\SRC\VENDOR\IAMGUI\IMGUI.CPP|C:\USERS\MATRIX\DOCUMENTS\VISUAL STUDIO 2017\PROJECTS\TDOI\TDOI\SRC\VENDOR\IAMGUI\IMGUI_DEMO.CPP|C:\USERS\MATRIX\DOCUMENTS\VISUAL STUDIO 2017\PROJECTS\TDOI\TDOI\SRC\VENDOR\IAMGUI\IMGUI_DRAW.CPP|C:\USERS\MATRIX\DOCUMENTS\VISUAL STUDIO 2017\PROJECTS\TDOI\TDOI\SRC\VENDOR\IAMGUI\IMGUI_IMPL_GLFW_GL3.CPP|C:\USERS\MATRIX\DOCUMENTS\VISUAL STUDIO 2017\PROJECTS\TDOI\TDOI\SRC\VERTEXARRAY.CPP|C:\USERS\MATRIX\DOCUMENTS\VISUAL STUDIO 2017\PROJECTS\TDOI\TDOI\SRC\VERTEXBUFFER.CPP|C:\USERS\MATRIX\DOCUMENTS\VISUAL STUDIO 2017\PROJECTS\TDOI\TDOI\SRC\WINDOWHANDLER.CPP|C:\USERS\MATRIX\DOCUMENTS\VISUAL STUDIO 2017\PROJECTS\TDOI\TDOI\TDOI.CPP
C:\USERS\MATRIX\DOCUMENTS\VISUAL STUDIO 2017\PROJECTS\TDOI\TDOI\DEBUG\VC141.PDB
C:\USERS\MATRIX\DOCUMENTS\VISUAL STUDIO 2017\PROJECTS\TDOI\TDOI\DEBUG\SHADER.NATIVECODEANALYSIS.XML
C:\USERS\MATRIX\DOCUMENTS\VISUAL STUDIO 2017\PROJECTS\TDOI\TDOI\DEBUG\RESOURCEHANDLER.NATIVECODEANALYSIS.XML
C:\USERS\MATRIX\DOCUMENTS\VISUAL STUDIO 2017\PROJECTS\TDOI\TDOI\DEBUG\RAWMODEL.NATIVECODEANALYSIS.XML
C:\USERS\MATRIX\DOCUMENTS\VISUAL STUDIO 2017\PROJECTS\TDOI\TDOI\DEBUG\PROGRAM.NATIVECODEANALYSIS.XML
C:\USERS\MATRIX\DOCUMENTS\VISUAL STUDIO 2017\PROJECTS\TDOI\TDOI\DEBUG\OBJECT.NATIVECODEANALYSIS.XML
C:\USERS\MATRIX\DOCUMENTS\VISUAL STUDIO 2017\PROJECTS\TDOI\TDOI\DEBUG\NV_DDS.NATIVECODEANALYSIS.XML
C:\USERS\MATRIX\DOCUMENTS\VISUAL STUDIO 2017\PROJECTS\TDOI\TDOI\DEBUG\MODELLOADER.NATIVECODEANALYSIS.XML
C:\USERS\MATRIX\DOCUMENTS\VISUAL STUDIO 2017\PROJECTS\TDOI\TDOI\DEBUG\MATERIALHANDLER.NATIVECODEANALYSIS.XML
C:\USERS\MATRIX\DOCUMENTS\VISUAL STUDIO 2017\PROJECTS\TDOI\TDOI\DEBUG\MATERIAL.NATIVECODEANALYSIS.XML
C:\USERS\MATRIX\DOCUMENTS\VISUAL STUDIO 2017\PROJECTS\TDOI\TDOI\DEBUG\GUIBASE.NATIVECODEANALYSIS.XML
C:\USERS\MATRIX\DOCUMENTS\VISUAL STUDIO 2017\PROJECTS\TDOI\TDOI\DEBUG\ENTITYHANDLER.NATIVECODEANALYSIS.XML
C:\USERS\MATRIX\DOCUMENTS\VISUAL STUDIO 2017\PROJECTS\TDOI\TDOI\DEBUG\ENTITY.NATIVECODEANALYSIS.XML
C:\USERS\MATRIX\DOCUMENTS\VISUAL STUDIO 2017\PROJECTS\TDOI\TDOI\DEBUG\DISPLAYSETTINGS.NATIVECODEANALYSIS.XML
C:\USERS\MATRIX\DOCUMENTS\VISUAL STUDIO 2017\PROJECTS\TDOI\TDOI\DEBUG\DISPLAY.NATIVECODEANALYSIS.XML
C:\USERS\MATRIX\DOCUMENTS\VISUAL STUDIO 2017\PROJECTS\TDOI\TDOI\DEBUG\CREATETEXTUREWINDOW.NATIVECODEANALYSIS.XML
C:\USERS\MATRIX\DOCUMENTS\VISUAL STUDIO 2017\PROJECTS\TDOI\TDOI\DEBUG\CREATESHADERWINDOW.NATIVECODEANALYSIS.XML
C:\USERS\MATRIX\DOCUMENTS\VISUAL STUDIO 2017\PROJECTS\TDOI\TDOI\DEBUG\CREATEMATERIALWINDOW.NATIVECODEANALYSIS.XML
C:\USERS\MATRIX\DOCUMENTS\VISUAL STUDIO 2017\PROJECTS\TDOI\TDOI\DEBUG\CREATEENTITYWINDOW.NATIVECODEANALYSIS.XML
C:\USERS\MATRIX\DOCUMENTS\VISUAL STUDIO 2017\PROJECTS\TDOI\TDOI\DEBUG\CAMERA.NATIVECODEANALYSIS.XML
C:\USERS\MATRIX\DOCUMENTS\VISUAL STUDIO 2017\PROJECTS\TDOI\TDOI\DEBUG\CAMERA.OBJ
C:\USERS\MATRIX\DOCUMENTS\VISUAL STUDIO 2017\PROJECTS\TDOI\TDOI\DEBUG\CREATEENTITYWINDOW.OBJ
C:\USERS\MATRIX\DOCUMENTS\VISUAL STUDIO 2017\PROJECTS\TDOI\TDOI\DEBUG\CREATEMATERIALWINDOW.OBJ
C:\USERS\MATRIX\DOCUMENTS\VISUAL STUDIO 2017\PROJECTS\TDOI\TDOI\DEBUG\CREATESHADERWINDOW.OBJ
C:\USERS\MATRIX\DOCUMENTS\VISUAL STUDIO 2017\PROJECTS\TDOI\TDOI\DEBUG\CREATETEXTUREWINDOW.OBJ
C:\USERS\MATRIX\DOCUMENTS\VISUAL STUDIO 2017\PROJECTS\TDOI\TDOI\DEBUG\DISPLAY.OBJ
C:\USERS\MATRIX\DOCUMENTS\VISUAL STUDIO 2017\PROJECTS\TDOI\TDOI\DEBUG\DISPLAYSETTINGS.OBJ
C:\USERS\MATRIX\DOCUMENTS\VISUAL STUDIO 2017\PROJECTS\TDOI\TDOI\DEBUG\ENTITY.OBJ
C:\USERS\MATRIX\DOCUMENTS\VISUAL STUDIO 2017\PROJECTS\TDOI\TDOI\DEBUG\ENTITYHANDLER.OBJ
C:\USERS\MATRIX\DOCUMENTS\VISUAL STUDIO 2017\PROJECTS\TDOI\TDOI\DEBUG\GUIBASE.OBJ
C:\USERS\MATRIX\DOCUMENTS\VISUAL STUDIO 2017\PROJECTS\TDOI\TDOI\DEBUG\MATERIAL.OBJ
C:\USERS\MATRIX\DOCUMENTS\VISUAL STUDIO 2017\PROJECTS\TDOI\TDOI\DEBUG\MATERIALHANDLER.OBJ
C:\USERS\MATRIX\DOCUMENTS\VISUAL STUDIO 2017\PROJECTS\TDOI\TDOI\DEBUG\MODELLOADER.OBJ
C:\USERS\MATRIX\DOCUMENTS\VISUAL STUDIO 2017\PROJECTS\TDOI\TDOI\DEBUG\NV_DDS.OBJ
C:\USERS\MATRIX\DOCUMENTS\VISUAL STUDIO 2017\PROJECTS\TDOI\TDOI\DEBUG\OBJECT.OBJ
C:\USERS\MATRIX\DOCUMENTS\VISUAL STUDIO 2017\PROJECTS\TDOI\TDOI\DEBUG\PROGRAM.OBJ
C:\USERS\MATRIX\DOCUMENTS\VISUAL STUDIO 2017\PROJECTS\TDOI\TDOI\DEBUG\RAWMODEL.OBJ
C:\USERS\MATRIX\DOCUMENTS\VISUAL STUDIO 2017\PROJECTS\TDOI\TDOI\DEBUG\RESOURCEHANDLER.OBJ
C:\USERS\MATRIX\DOCUMENTS\VISUAL STUDIO 2017\PROJECTS\TDOI\TDOI\DEBUG\SHADER.OBJ
C:\USERS\MATRIX\DOCUMENTS\VISUAL STUDIO 2017\PROJECTS\TDOI\TDOI\DEBUG\TDOI.NATIVECODEANALYSIS.XML
C:\USERS\MATRIX\DOCUMENTS\VISUAL STUDIO 2017\PROJECTS\TDOI\TDOI\DEBUG\WINDOWHANDLER.NATIVECODEANALYSIS.XML
C:\USERS\MATRIX\DOCUMENTS\VISUAL STUDIO 2017\PROJECTS\TDOI\TDOI\DEBUG\VERTEXBUFFER.NATIVECODEANALYSIS.XML
C:\USERS\MATRIX\DOCUMENTS\VISUAL STUDIO 2017\PROJECTS\TDOI\TDOI\DEBUG\VERTEXARRAY.NATIVECODEANALYSIS.XML
C:\USERS\MATRIX\DOCUMENTS\VISUAL STUDIO 2017\PROJECTS\TDOI\TDOI\DEBUG\IMGUI_IMPL_GLFW_GL3.NATIVECODEANALYSIS.XML
C:\USERS\MATRIX\DOCUMENTS\VISUAL STUDIO 2017\PROJECTS\TDOI\TDOI\DEBUG\IMGUI_DRAW.NATIVECODEANALYSIS.XML
C:\USERS\MATRIX\DOCUMENTS\VISUAL STUDIO 2017\PROJECTS\TDOI\TDOI\DEBUG\IMGUI_DEMO.NATIVECODEANALYSIS.XML
C:\USERS\MATRIX\DOCUMENTS\VISUAL STUDIO 2017\PROJECTS\TDOI\TDOI\DEBUG\IMGUI.NATIVECODEANALYSIS.XML
C:\USERS\MATRIX\DOCUMENTS\VISUAL STUDIO 2017\PROJECTS\TDOI\TDOI\DEBUG\IMGUIFILESYSTEM.NATIVECODEANALYSIS.XML
C:\USERS\MATRIX\DOCUMENTS\VISUAL STUDIO 2017\PROJECTS\TDOI\TDOI\DEBUG\TEXTURELOADER.NATIVECODEANALYSIS.XML
C:\USERS\MATRIX\DOCUMENTS\VISUAL STUDIO 2017\PROJECTS\TDOI\TDOI\DEBUG\TEXTUREHANDLER.NATIVECODEANALYSIS.XML
C:\USERS\MATRIX\DOCUMENTS\VISUAL STUDIO 2017\PROJECTS\TDOI\TDOI\DEBUG\TEXTURE.NATIVECODEANALYSIS.XML
C:\USERS\MATRIX\DOCUMENTS\VISUAL STUDIO 2017\PROJECTS\TDOI\TDOI\DEBUG\SHADERHANDLER.NATIVECODEANALYSIS.XML
C:\USERS\MATRIX\DOCUMENTS\VISUAL STUDIO 2017\PROJECTS\TDOI\TDOI\DEBUG\SHADERHANDLER.OBJ
C:\USERS\MATRIX\DOCUMENTS\VISUAL STUDIO 2017\PROJECTS\TDOI\TDOI\DEBUG\TEXTURE.OBJ
C:\USERS\MATRIX\DOCUMENTS\VISUAL STUDIO 2017\PROJECTS\TDOI\TDOI\DEBUG\TEXTUREHANDLER.OBJ
C:\USERS\MATRIX\DOCUMENTS\VISUAL STUDIO 2017\PROJECTS\TDOI\TDOI\DEBUG\TEXTURELOADER.OBJ
C:\USERS\MATRIX\DOCUMENTS\VISUAL STUDIO 2017\PROJECTS\TDOI\TDOI\DEBUG\IMGUIFILESYSTEM.OBJ
C:\USERS\MATRIX\DOCUMENTS\VISUAL STUDIO 2017\PROJECTS\TDOI\TDOI\DEBUG\IMGUI.OBJ
C:\USERS\MATRIX\DOCUMENTS\VISUAL STUDIO 2017\PROJECTS\TDOI\TDOI\DEBUG\IMGUI_DEMO.OBJ
C:\USERS\MATRIX\DOCUMENTS\VISUAL STUDIO 2017\PROJECTS\TDOI\TDOI\DEBUG\IMGUI_DRAW.OBJ
C:\USERS\MATRIX\DOCUMENTS\VISUAL STUDIO 2017\PROJECTS\TDOI\TDOI\DEBUG\IMGUI_IMPL_GLFW_GL3.OBJ
C:\USERS\MATRIX\DOCUMENTS\VISUAL STUDIO 2017\PROJECTS\TDOI\TDOI\DEBUG\VERTEXARRAY.OBJ
C:\USERS\MATRIX\DOCUMENTS\VISUAL STUDIO 2017\PROJECTS\TDOI\TDOI\DEBUG\VERTEXBUFFER.OBJ
C:\USERS\MATRIX\DOCUMENTS\VISUAL STUDIO 2017\PROJECTS\TDOI\TDOI\DEBUG\WINDOWHANDLER.OBJ
C:\USERS\MATRIX\DOCUMENTS\VISUAL STUDIO 2017\PROJECTS\TDOI\TDOI\DEBUG\TDOI.OBJ
^C:\USERS\MATRIX\DOCUMENTS\VISUAL STUDIO 2017\PROJECTS\TDOI\TDOI\SRC\CREATEENTITYWINDOW.CPP
C:\USERS\MATRIX\DOCUMENTS\VISUAL STUDIO 2017\PROJECTS\TDOI\TDOI\DEBUG\CREATEENTITYWINDOW.OBJ
^C:\USERS\MATRIX\DOCUMENTS\VISUAL STUDIO 2017\PROJECTS\TDOI\TDOI\SRC\CREATEMATERIALWINDOW.CPP
C:\USERS\MATRIX\DOCUMENTS\VISUAL STUDIO 2017\PROJECTS\TDOI\TDOI\DEBUG\CREATEMATERIALWINDOW.OBJ
^C:\USERS\MATRIX\DOCUMENTS\VISUAL STUDIO 2017\PROJECTS\TDOI\TDOI\SRC\CREATESHADERWINDOW.CPP
C:\USERS\MATRIX\DOCUMENTS\VISUAL STUDIO 2017\PROJECTS\TDOI\TDOI\DEBUG\CREATESHADERWINDOW.OBJ
^C:\USERS\MATRIX\DOCUMENTS\VISUAL STUDIO 2017\PROJECTS\TDOI\TDOI\SRC\CREATETEXTUREWINDOW.CPP
C:\USERS\MATRIX\DOCUMENTS\VISUAL STUDIO 2017\PROJECTS\TDOI\TDOI\DEBUG\CREATETEXTUREWINDOW.OBJ
^C:\USERS\MATRIX\DOCUMENTS\VISUAL STUDIO 2017\PROJECTS\TDOI\TDOI\SRC\DISPLAY.CPP
C:\USERS\MATRIX\DOCUMENTS\VISUAL STUDIO 2017\PROJECTS\TDOI\TDOI\DEBUG\DISPLAY.OBJ
^C:\USERS\MATRIX\DOCUMENTS\VISUAL STUDIO 2017\PROJECTS\TDOI\TDOI\SRC\DISPLAYSETTINGS.CPP
C:\USERS\MATRIX\DOCUMENTS\VISUAL STUDIO 2017\PROJECTS\TDOI\TDOI\DEBUG\DISPLAYSETTINGS.OBJ
^C:\USERS\MATRIX\DOCUMENTS\VISUAL STUDIO 2017\PROJECTS\TDOI\TDOI\SRC\ENTITY.CPP
C:\USERS\MATRIX\DOCUMENTS\VISUAL STUDIO 2017\PROJECTS\TDOI\TDOI\DEBUG\ENTITY.OBJ
^C:\USERS\MATRIX\DOCUMENTS\VISUAL STUDIO 2017\PROJECTS\TDOI\TDOI\SRC\ENTITYHANDLER.CPP
C:\USERS\MATRIX\DOCUMENTS\VISUAL STUDIO 2017\PROJECTS\TDOI\TDOI\DEBUG\ENTITYHANDLER.OBJ
^C:\USERS\MATRIX\DOCUMENTS\VISUAL STUDIO 2017\PROJECTS\TDOI\TDOI\SRC\MATERIAL.CPP
C:\USERS\MATRIX\DOCUMENTS\VISUAL STUDIO 2017\PROJECTS\TDOI\TDOI\DEBUG\MATERIAL.OBJ
^C:\USERS\MATRIX\DOCUMENTS\VISUAL STUDIO 2017\PROJECTS\TDOI\TDOI\SRC\MATERIALHANDLER.CPP
C:\USERS\MATRIX\DOCUMENTS\VISUAL STUDIO 2017\PROJECTS\TDOI\TDOI\DEBUG\MATERIALHANDLER.OBJ
^C:\USERS\MATRIX\DOCUMENTS\VISUAL STUDIO 2017\PROJECTS\TDOI\TDOI\SRC\MODELLOADER.CPP
C:\USERS\MATRIX\DOCUMENTS\VISUAL STUDIO 2017\PROJECTS\TDOI\TDOI\DEBUG\MODELLOADER.OBJ
^C:\USERS\MATRIX\DOCUMENTS\VISUAL STUDIO 2017\PROJECTS\TDOI\TDOI\SRC\NV_DDS.CPP
C:\USERS\MATRIX\DOCUMENTS\VISUAL STUDIO 2017\PROJECTS\TDOI\TDOI\DEBUG\NV_DDS.OBJ
^C:\USERS\MATRIX\DOCUMENTS\VISUAL STUDIO 2017\PROJECTS\TDOI\TDOI\SRC\OBJECT.CPP
C:\USERS\MATRIX\DOCUMENTS\VISUAL STUDIO 2017\PROJECTS\TDOI\TDOI\DEBUG\OBJECT.OBJ
^C:\USERS\MATRIX\DOCUMENTS\VISUAL STUDIO 2017\PROJECTS\TDOI\TDOI\SRC\PROGRAM.CPP
C:\USERS\MATRIX\DOCUMENTS\VISUAL STUDIO 2017\PROJECTS\TDOI\TDOI\DEBUG\PROGRAM.OBJ
^C:\USERS\MATRIX\DOCUMENTS\VISUAL STUDIO 2017\PROJECTS\TDOI\TDOI\SRC\RAWMODEL.CPP
C:\USERS\MATRIX\DOCUMENTS\VISUAL STUDIO 2017\PROJECTS\TDOI\TDOI\DEBUG\RAWMODEL.OBJ
^C:\USERS\MATRIX\DOCUMENTS\VISUAL STUDIO 2017\PROJECTS\TDOI\TDOI\SRC\RESOURCEHANDLER.CPP
C:\USERS\MATRIX\DOCUMENTS\VISUAL STUDIO 2017\PROJECTS\TDOI\TDOI\DEBUG\RESOURCEHANDLER.OBJ
^C:\USERS\MATRIX\DOCUMENTS\VISUAL STUDIO 2017\PROJECTS\TDOI\TDOI\SRC\SHADER.CPP
C:\USERS\MATRIX\DOCUMENTS\VISUAL STUDIO 2017\PROJECTS\TDOI\TDOI\DEBUG\SHADER.OBJ
^C:\USERS\MATRIX\DOCUMENTS\VISUAL STUDIO 2017\PROJECTS\TDOI\TDOI\SRC\SHADERHANDLER.CPP
C:\USERS\MATRIX\DOCUMENTS\VISUAL STUDIO 2017\PROJECTS\TDOI\TDOI\DEBUG\SHADERHANDLER.OBJ
^C:\USERS\MATRIX\DOCUMENTS\VISUAL STUDIO 2017\PROJECTS\TDOI\TDOI\SRC\TEXTURE.CPP
C:\USERS\MATRIX\DOCUMENTS\VISUAL STUDIO 2017\PROJECTS\TDOI\TDOI\DEBUG\TEXTURE.OBJ
^C:\USERS\MATRIX\DOCUMENTS\VISUAL STUDIO 2017\PROJECTS\TDOI\TDOI\SRC\TEXTUREHANDLER.CPP
C:\USERS\MATRIX\DOCUMENTS\VISUAL STUDIO 2017\PROJECTS\TDOI\TDOI\DEBUG\TEXTUREHANDLER.OBJ
^C:\USERS\MATRIX\DOCUMENTS\VISUAL STUDIO 2017\PROJECTS\TDOI\TDOI\SRC\TEXTURELOADER.CPP
C:\USERS\MATRIX\DOCUMENTS\VISUAL STUDIO 2017\PROJECTS\TDOI\TDOI\DEBUG\TEXTURELOADER.OBJ
^C:\USERS\MATRIX\DOCUMENTS\VISUAL STUDIO 2017\PROJECTS\TDOI\TDOI\SRC\VENDOR\IAMGUI\ADDONS\IMGUIFILESYSTEM\IMGUIFILESYSTEM.CPP
C:\USERS\MATRIX\DOCUMENTS\VISUAL STUDIO 2017\PROJECTS\TDOI\TDOI\DEBUG\IMGUIFILESYSTEM.OBJ
^C:\USERS\MATRIX\DOCUMENTS\VISUAL STUDIO 2017\PROJECTS\TDOI\TDOI\SRC\VENDOR\IAMGUI\IMGUI.CPP
C:\USERS\MATRIX\DOCUMENTS\VISUAL STUDIO 2017\PROJECTS\TDOI\TDOI\DEBUG\IMGUI.OBJ
^C:\USERS\MATRIX\DOCUMENTS\VISUAL STUDIO 2017\PROJECTS\TDOI\TDOI\SRC\VENDOR\IAMGUI\IMGUI_DEMO.CPP
C:\USERS\MATRIX\DOCUMENTS\VISUAL STUDIO 2017\PROJECTS\TDOI\TDOI\DEBUG\IMGUI_DEMO.OBJ
^C:\USERS\MATRIX\DOCUMENTS\VISUAL STUDIO 2017\PROJECTS\TDOI\TDOI\SRC\VENDOR\IAMGUI\IMGUI_DRAW.CPP
C:\USERS\MATRIX\DOCUMENTS\VISUAL STUDIO 2017\PROJECTS\TDOI\TDOI\DEBUG\IMGUI_DRAW.OBJ
^C:\USERS\MATRIX\DOCUMENTS\VISUAL STUDIO 2017\PROJECTS\TDOI\TDOI\SRC\VENDOR\IAMGUI\IMGUI_IMPL_GLFW_GL3.CPP
C:\USERS\MATRIX\DOCUMENTS\VISUAL STUDIO 2017\PROJECTS\TDOI\TDOI\DEBUG\IMGUI_IMPL_GLFW_GL3.OBJ
^C:\USERS\MATRIX\DOCUMENTS\VISUAL STUDIO 2017\PROJECTS\TDOI\TDOI\SRC\VERTEXARRAY.CPP
C:\USERS\MATRIX\DOCUMENTS\VISUAL STUDIO 2017\PROJECTS\TDOI\TDOI\DEBUG\VERTEXARRAY.OBJ
^C:\USERS\MATRIX\DOCUMENTS\VISUAL STUDIO 2017\PROJECTS\TDOI\TDOI\SRC\VERTEXBUFFER.CPP
C:\USERS\MATRIX\DOCUMENTS\VISUAL STUDIO 2017\PROJECTS\TDOI\TDOI\DEBUG\VERTEXBUFFER.OBJ
^C:\USERS\MATRIX\DOCUMENTS\VISUAL STUDIO 2017\PROJECTS\TDOI\TDOI\SRC\WINDOWHANDLER.CPP
C:\USERS\MATRIX\DOCUMENTS\VISUAL STUDIO 2017\PROJECTS\TDOI\TDOI\DEBUG\WINDOWHANDLER.OBJ
^C:\USERS\MATRIX\DOCUMENTS\VISUAL STUDIO 2017\PROJECTS\TDOI\TDOI\TDOI.CPP
C:\USERS\MATRIX\DOCUMENTS\VISUAL STUDIO 2017\PROJECTS\TDOI\TDOI\DEBUG\TDOI.OBJ
